"date","open","high","low","close","volume","adjusted","stocks","etf_desc","rel_val"
2020-01-02,5.6266,5.6419,5.6052,5.6052,390,5.6052,"WHCS.AS","iShares MSCI World Health Care Sector",0
2020-01-03,5.5803,5.6056,5.5729,5.6056,3169,5.6056,"WHCS.AS","iShares MSCI World Health Care Sector",0.000399999999999956
2020-01-06,5.5837,5.588,5.55,5.588,26388,5.588,"WHCS.AS","iShares MSCI World Health Care Sector",-0.0171999999999999
2020-01-07,5.6181,5.6201,5.5971,5.5971,2660,5.5971,"WHCS.AS","iShares MSCI World Health Care Sector",-0.00809999999999977
2020-01-08,5.5903,5.6133,5.5903,5.6133,6639,5.6133,"WHCS.AS","iShares MSCI World Health Care Sector",0.00809999999999977
2020-01-09,5.6562,5.6671,5.6562,5.6671,0,5.6671,"WHCS.AS","iShares MSCI World Health Care Sector",0.0618999999999996
2020-01-10,5.69,5.69,5.6791,5.6821,6100,5.6821,"WHCS.AS","iShares MSCI World Health Care Sector",0.0769000000000002
2020-01-13,5.6772,5.6772,5.6527,5.6527,0,5.6527,"WHCS.AS","iShares MSCI World Health Care Sector",0.0475000000000003
2020-01-14,5.6507,5.6573,5.6507,5.6573,0,5.6573,"WHCS.AS","iShares MSCI World Health Care Sector",0.0521000000000003
2020-01-15,5.688,5.7436,5.688,5.7409,213,5.7409,"WHCS.AS","iShares MSCI World Health Care Sector",0.1357
2020-01-16,5.7441,5.7441,5.7397,5.7397,0,5.7397,"WHCS.AS","iShares MSCI World Health Care Sector",0.1345
2020-01-17,5.7605,5.7711,5.7605,5.7668,500,5.7668,"WHCS.AS","iShares MSCI World Health Care Sector",0.1616
2020-01-20,5.7529,5.7578,5.7529,5.7547,1200,5.7547,"WHCS.AS","iShares MSCI World Health Care Sector",0.1495
2020-01-21,5.7422,5.7757,5.7422,5.7757,35,5.7757,"WHCS.AS","iShares MSCI World Health Care Sector",0.1705
2020-01-22,5.7826,5.786,5.7729,5.7729,3103,5.7729,"WHCS.AS","iShares MSCI World Health Care Sector",0.1677
2020-01-23,5.8,5.8,5.7257,5.7257,4285,5.7257,"WHCS.AS","iShares MSCI World Health Care Sector",0.1205
2020-01-24,5.7715,5.7718,5.6911,5.6911,10071,5.6911,"WHCS.AS","iShares MSCI World Health Care Sector",0.0858999999999996
2020-01-27,5.6454,5.6454,5.6,5.6187,31148,5.6187,"WHCS.AS","iShares MSCI World Health Care Sector",0.0134999999999996
2020-01-28,5.6808,5.6808,5.637,5.6658,37100,5.6658,"WHCS.AS","iShares MSCI World Health Care Sector",0.0606
2020-01-29,5.705,5.705,5.6706,5.6733,42816,5.6733,"WHCS.AS","iShares MSCI World Health Care Sector",0.0681000000000003
2020-01-30,5.6435,5.6435,5.5952,5.5952,6659,5.5952,"WHCS.AS","iShares MSCI World Health Care Sector",-0.00999999999999979
2020-01-31,5.6054,5.6112,5.5391,5.5391,9444,5.5391,"WHCS.AS","iShares MSCI World Health Care Sector",-0.0660999999999996
2020-02-03,5.5608,5.5934,5.5581,5.5701,6547,5.5701,"WHCS.AS","iShares MSCI World Health Care Sector",-0.0350999999999999
2020-02-04,5.6032,5.6711,5.6032,5.6711,5000,5.6711,"WHCS.AS","iShares MSCI World Health Care Sector",0.0659000000000001
2020-02-05,5.6928,5.7419,5.6696,5.7419,8593,5.7419,"WHCS.AS","iShares MSCI World Health Care Sector",0.1367
2020-02-06,5.7856,5.7856,5.75,5.7716,2783,5.7716,"WHCS.AS","iShares MSCI World Health Care Sector",0.1664
2020-02-07,5.8059,5.8059,5.7387,5.7387,11160,5.7387,"WHCS.AS","iShares MSCI World Health Care Sector",0.1335
2020-02-10,5.7457,5.7488,5.7224,5.7428,21446,5.7428,"WHCS.AS","iShares MSCI World Health Care Sector",0.1376
2020-02-11,5.7684,5.7826,5.7684,5.7757,7939,5.7757,"WHCS.AS","iShares MSCI World Health Care Sector",0.1705
2020-02-12,5.7908,5.8024,5.787,5.787,25542,5.787,"WHCS.AS","iShares MSCI World Health Care Sector",0.1818
2020-02-13,5.7274,5.7786,5.7274,5.7712,8235,5.7712,"WHCS.AS","iShares MSCI World Health Care Sector",0.166
2020-02-14,5.7704,5.7714,5.7497,5.7497,212,5.7497,"WHCS.AS","iShares MSCI World Health Care Sector",0.1445
2020-02-17,5.7638,5.7704,5.7628,5.768,4615,5.768,"WHCS.AS","iShares MSCI World Health Care Sector",0.1628
2020-02-18,5.744,5.7488,5.7326,5.7326,475,5.7326,"WHCS.AS","iShares MSCI World Health Care Sector",0.1274
2020-02-19,5.8079,5.8079,5.772,5.7775,704,5.7775,"WHCS.AS","iShares MSCI World Health Care Sector",0.1723
2020-02-20,5.7748,5.7779,5.7133,5.7133,6675,5.7133,"WHCS.AS","iShares MSCI World Health Care Sector",0.1081
2020-02-21,5.7166,5.7331,5.7166,5.7331,0,5.7331,"WHCS.AS","iShares MSCI World Health Care Sector",0.1279
2020-02-24,5.6905,5.6905,5.5729,5.5729,8642,5.5729,"WHCS.AS","iShares MSCI World Health Care Sector",-0.0323000000000002
2020-02-25,5.5965,5.5965,5.4829,5.4829,9335,5.4829,"WHCS.AS","iShares MSCI World Health Care Sector",-0.1223
2020-02-26,5.4644,5.4748,5.3832,5.4748,6403,5.4748,"WHCS.AS","iShares MSCI World Health Care Sector",-0.1304
2020-02-27,5.431,5.431,5.3599,5.3599,9603,5.3599,"WHCS.AS","iShares MSCI World Health Care Sector",-0.2453
2020-02-28,5.1845,5.1866,5.0339,5.1083,5740,5.1083,"WHCS.AS","iShares MSCI World Health Care Sector",-0.4969
2020-03-02,5.2705,5.2705,5.1493,5.2527,6070,5.2527,"WHCS.AS","iShares MSCI World Health Care Sector",-0.3525
2020-03-03,5.375,5.47,5.3298,5.3298,6907,5.3298,"WHCS.AS","iShares MSCI World Health Care Sector",-0.2754
2020-03-04,5.3436,5.4483,5.3436,5.4483,5100,5.4483,"WHCS.AS","iShares MSCI World Health Care Sector",-0.1569
2020-03-05,5.4902,5.4902,5.4585,5.4841,11795,5.4841,"WHCS.AS","iShares MSCI World Health Care Sector",-0.1211
2020-03-06,5.3864,5.3864,5.3359,5.3359,0,5.3359,"WHCS.AS","iShares MSCI World Health Care Sector",-0.2693
2020-03-09,5.2,5.27,5.1491,5.1491,630,5.1491,"WHCS.AS","iShares MSCI World Health Care Sector",-0.4561
2020-03-10,5.2492,5.3008,5.0793,5.0793,2680,5.0793,"WHCS.AS","iShares MSCI World Health Care Sector",-0.5259
2020-03-11,5.1535,5.2072,5.0989,5.0989,3638,5.0989,"WHCS.AS","iShares MSCI World Health Care Sector",-0.5063
2020-03-12,4.8707,4.8707,4.6536,4.6536,4233,4.6536,"WHCS.AS","iShares MSCI World Health Care Sector",-0.9516
2020-03-13,4.83,4.9199,4.6719,4.6719,24480,4.6719,"WHCS.AS","iShares MSCI World Health Care Sector",-0.9333
2020-03-16,4.4907,4.6486,4.4907,4.6486,1732,4.6486,"WHCS.AS","iShares MSCI World Health Care Sector",-0.9566
2020-03-17,4.6,4.7683,4.5322,4.6982,15243,4.6982,"WHCS.AS","iShares MSCI World Health Care Sector",-0.907
2020-03-18,4.6694,4.6694,4.5114,4.5114,3566,4.5114,"WHCS.AS","iShares MSCI World Health Care Sector",-1.0938
2020-03-19,4.5793,4.5793,4.4833,4.538,2100,4.538,"WHCS.AS","iShares MSCI World Health Care Sector",-1.0672
2020-03-20,4.7296,4.7296,4.5057,4.5057,30866,4.5057,"WHCS.AS","iShares MSCI World Health Care Sector",-1.0995
2020-03-23,4.3,4.3821,4.2609,4.2609,16834,4.2609,"WHCS.AS","iShares MSCI World Health Care Sector",-1.3443
2020-03-24,4.4767,4.5067,4.3612,4.5061,10108,4.5061,"WHCS.AS","iShares MSCI World Health Care Sector",-1.0991
2020-03-25,4.5682,4.6593,4.4525,4.6437,24962,4.6437,"WHCS.AS","iShares MSCI World Health Care Sector",-0.9615
2020-03-26,4.6203,4.8311,4.5911,4.8311,16419,4.8311,"WHCS.AS","iShares MSCI World Health Care Sector",-0.7741
2020-03-27,4.7888,4.8489,4.7888,4.8143,3320,4.8143,"WHCS.AS","iShares MSCI World Health Care Sector",-0.7909
2020-03-30,4.8623,4.9586,4.8283,4.9586,250,4.9586,"WHCS.AS","iShares MSCI World Health Care Sector",-0.6466
2020-03-31,5.006,5.0362,4.95,5.0208,21342,5.0208,"WHCS.AS","iShares MSCI World Health Care Sector",-0.5844
2020-04-01,4.8927,4.8927,4.8594,4.8726,25757,4.8726,"WHCS.AS","iShares MSCI World Health Care Sector",-0.7326
2020-04-02,4.8716,4.8723,4.79,4.8582,39980,4.8582,"WHCS.AS","iShares MSCI World Health Care Sector",-0.747
2020-04-03,4.927,4.9374,4.887,4.887,195,4.887,"WHCS.AS","iShares MSCI World Health Care Sector",-0.7182
2020-04-06,5.0538,5.059,5.011,5.0442,3501,5.0442,"WHCS.AS","iShares MSCI World Health Care Sector",-0.561
2020-04-07,NA,NA,NA,NA,NA,NA,"WHCS.AS","iShares MSCI World Health Care Sector",NA
2020-04-08,NA,NA,NA,NA,NA,NA,"WHCS.AS","iShares MSCI World Health Care Sector",NA
2020-04-09,NA,NA,NA,NA,NA,NA,"WHCS.AS","iShares MSCI World Health Care Sector",NA
2020-04-14,NA,NA,NA,NA,NA,NA,"WHCS.AS","iShares MSCI World Health Care Sector",NA
2020-04-15,NA,NA,NA,NA,NA,NA,"WHCS.AS","iShares MSCI World Health Care Sector",NA
2020-04-16,NA,NA,NA,NA,NA,NA,"WHCS.AS","iShares MSCI World Health Care Sector",NA
2020-04-17,NA,NA,NA,NA,NA,NA,"WHCS.AS","iShares MSCI World Health Care Sector",NA
2020-04-20,NA,NA,NA,NA,NA,NA,"WHCS.AS","iShares MSCI World Health Care Sector",NA
2020-04-21,NA,NA,NA,NA,NA,NA,"WHCS.AS","iShares MSCI World Health Care Sector",NA
2020-04-22,NA,NA,NA,NA,NA,NA,"WHCS.AS","iShares MSCI World Health Care Sector",NA
2020-04-23,NA,NA,NA,NA,NA,NA,"WHCS.AS","iShares MSCI World Health Care Sector",NA
2020-04-24,NA,NA,NA,NA,NA,NA,"WHCS.AS","iShares MSCI World Health Care Sector",NA
2020-04-27,NA,NA,NA,NA,NA,NA,"WHCS.AS","iShares MSCI World Health Care Sector",NA
2020-04-28,NA,NA,NA,NA,NA,NA,"WHCS.AS","iShares MSCI World Health Care Sector",NA
2020-04-29,NA,NA,NA,NA,NA,NA,"WHCS.AS","iShares MSCI World Health Care Sector",NA
2020-04-30,NA,NA,NA,NA,NA,NA,"WHCS.AS","iShares MSCI World Health Care Sector",NA
2020-05-04,NA,NA,NA,NA,NA,NA,"WHCS.AS","iShares MSCI World Health Care Sector",NA
2020-01-02,45.360001,45.779999,45.349998,45.779999,78570100,45.779999,"EEM","iShares MSCI Emerging Markets ETF",0
2020-01-03,45.029999,45.259998,44.91,44.93,78998200,44.93,"EEM","iShares MSCI Emerging Markets ETF",-0.849998999999997
2020-01-06,44.599998,44.869999,44.59,44.82,40085300,44.82,"EEM","iShares MSCI Emerging Markets ETF",-0.959998999999996
2020-01-07,44.790001,44.900002,44.689999,44.790001,65705300,44.790001,"EEM","iShares MSCI Emerging Markets ETF",-0.989998
2020-01-08,44.73,45.299999,44.689999,45.049999,86913300,45.049999,"EEM","iShares MSCI Emerging Markets ETF",-0.729999999999997
2020-01-09,45.48,45.48,45.259998,45.349998,53199900,45.349998,"EEM","iShares MSCI Emerging Markets ETF",-0.430000999999997
2020-01-10,45.639999,45.77,45.529999,45.59,67573300,45.59,"EEM","iShares MSCI Emerging Markets ETF",-0.189998999999993
2020-01-13,45.91,46.32,45.810001,46.299999,79593800,46.299999,"EEM","iShares MSCI Emerging Markets ETF",0.520000000000003
2020-01-14,46.029999,46.07,45.82,46.040001,75746900,46.040001,"EEM","iShares MSCI Emerging Markets ETF",0.260002
2020-01-15,45.869999,45.919998,45.610001,45.68,60620600,45.68,"EEM","iShares MSCI Emerging Markets ETF",-0.0999989999999968
2020-01-16,45.98,46.040001,45.830002,45.970001,50712700,45.970001,"EEM","iShares MSCI Emerging Markets ETF",0.190002000000007
2020-01-17,46.119999,46.259998,46.009998,46.23,72382100,46.23,"EEM","iShares MSCI Emerging Markets ETF",0.450001
2020-01-21,45.27,45.349998,45.029999,45.060001,106662600,45.060001,"EEM","iShares MSCI Emerging Markets ETF",-0.719997999999997
2020-01-22,45.560001,45.580002,45.299999,45.43,57584900,45.43,"EEM","iShares MSCI Emerging Markets ETF",-0.349998999999997
2020-01-23,44.720001,45.099998,44.48,44.959999,88714300,44.959999,"EEM","iShares MSCI Emerging Markets ETF",-0.819999999999993
2020-01-24,45.02,45.029999,44.389999,44.599998,88654500,44.599998,"EEM","iShares MSCI Emerging Markets ETF",-1.180001
2020-01-27,42.740002,44.970001,42.66,43.060001,129321800,43.060001,"EEM","iShares MSCI Emerging Markets ETF",-2.719998
2020-01-28,43.220001,43.5,43.029999,43.419998,82396700,43.419998,"EEM","iShares MSCI Emerging Markets ETF",-2.360001
2020-01-29,43.759998,43.790001,43.5,43.630001,51814700,43.630001,"EEM","iShares MSCI Emerging Markets ETF",-2.149998
2020-01-30,42.66,43.029999,42.43,42.98,105864200,42.98,"EEM","iShares MSCI Emerging Markets ETF",-2.799999
2020-01-31,42.299999,42.330002,41.880001,42.110001,99532200,42.110001,"EEM","iShares MSCI Emerging Markets ETF",-3.669998
2020-02-03,42.27,42.68,42.259998,42.580002,71311700,42.580002,"EEM","iShares MSCI Emerging Markets ETF",-3.199997
2020-02-04,43.68,43.93,43.650002,43.68,73939300,43.68,"EEM","iShares MSCI Emerging Markets ETF",-2.099999
2020-02-05,44.459999,44.470001,43.900002,43.93,74350800,43.93,"EEM","iShares MSCI Emerging Markets ETF",-1.849999
2020-02-06,44.330002,44.349998,43.959999,43.970001,80118800,43.970001,"EEM","iShares MSCI Emerging Markets ETF",-1.80999799999999
2020-02-07,43.529999,43.549999,43.25,43.360001,58449900,43.360001,"EEM","iShares MSCI Emerging Markets ETF",-2.419998
2020-02-10,43.380001,43.630001,43.380001,43.599998,45350800,43.599998,"EEM","iShares MSCI Emerging Markets ETF",-2.180001
2020-02-11,44.139999,44.41,44.080002,44.169998,58708400,44.169998,"EEM","iShares MSCI Emerging Markets ETF",-1.610001
2020-02-12,44.59,44.84,44.5,44.77,41641100,44.77,"EEM","iShares MSCI Emerging Markets ETF",-1.00999899999999
2020-02-13,44.290001,44.450001,44.16,44.18,64757500,44.18,"EEM","iShares MSCI Emerging Markets ETF",-1.599999
2020-02-14,44.459999,44.470001,44.040001,44.200001,45095300,44.200001,"EEM","iShares MSCI Emerging Markets ETF",-1.579998
2020-02-18,43.889999,44.049999,43.810001,43.91,40176200,43.91,"EEM","iShares MSCI Emerging Markets ETF",-1.869999
2020-02-19,44.25,44.330002,44.189999,44.23,45651500,44.23,"EEM","iShares MSCI Emerging Markets ETF",-1.549999
2020-02-20,43.880001,44.34,43.400002,43.540001,109316300,43.540001,"EEM","iShares MSCI Emerging Markets ETF",-2.239998
2020-02-21,43.439999,43.529999,43.23,43.290001,70553100,43.290001,"EEM","iShares MSCI Emerging Markets ETF",-2.489998
2020-02-24,41.459999,41.91,41.43,41.669998,101505600,41.669998,"EEM","iShares MSCI Emerging Markets ETF",-4.110001
2020-02-25,42.279999,42.349998,41.34,41.34,118601100,41.34,"EEM","iShares MSCI Emerging Markets ETF",-4.43999899999999
2020-02-26,41.830002,42.240002,41.639999,41.669998,109411100,41.669998,"EEM","iShares MSCI Emerging Markets ETF",-4.110001
2020-02-27,41.209999,41.52,40.66,40.669998,151063200,40.669998,"EEM","iShares MSCI Emerging Markets ETF",-5.110001
2020-02-28,39.549999,40.619999,39.279999,40.52,201191200,40.52,"EEM","iShares MSCI Emerging Markets ETF",-5.25999899999999
2020-03-02,40.639999,41.41,40.400002,41.400002,135152300,41.400002,"EEM","iShares MSCI Emerging Markets ETF",-4.379997
2020-03-03,41.41,42.080002,40.830002,41.119999,141798700,41.119999,"EEM","iShares MSCI Emerging Markets ETF",-4.66
2020-03-04,41.740002,41.93,41.509998,41.849998,80064800,41.849998,"EEM","iShares MSCI Emerging Markets ETF",-3.930001
2020-03-05,41.52,41.68,40.799999,40.970001,107474200,40.970001,"EEM","iShares MSCI Emerging Markets ETF",-4.80999799999999
2020-03-06,40.27,40.389999,39.810001,40.130001,104006900,40.130001,"EEM","iShares MSCI Emerging Markets ETF",-5.649998
2020-03-09,37.23,38.099998,36.599998,37.389999,143376900,37.389999,"EEM","iShares MSCI Emerging Markets ETF",-8.38999999999999
2020-03-10,38.950001,39.330002,38.169998,39.290001,142773700,39.290001,"EEM","iShares MSCI Emerging Markets ETF",-6.489998
2020-03-11,38.200001,38.330002,37.220001,37.459999,137795400,37.459999,"EEM","iShares MSCI Emerging Markets ETF",-8.31999999999999
2020-03-12,34.130001,34.669998,32.889999,33.709999,171341200,33.709999,"EEM","iShares MSCI Emerging Markets ETF",-12.07
2020-03-13,36.610001,36.700001,34.380001,36.139999,128272900,36.139999,"EEM","iShares MSCI Emerging Markets ETF",-9.63999999999999
2020-03-16,32,33.48,31.59,31.629999,101553900,31.629999,"EEM","iShares MSCI Emerging Markets ETF",-14.15
2020-03-17,32.560001,33.810001,32.029999,33.810001,92310900,33.810001,"EEM","iShares MSCI Emerging Markets ETF",-11.969998
2020-03-18,30.91,32.02,30.15,30.889999,101136100,30.889999,"EEM","iShares MSCI Emerging Markets ETF",-14.89
2020-03-19,30.809999,31.549999,30.25,31.129999,68919700,31.129999,"EEM","iShares MSCI Emerging Markets ETF",-14.65
2020-03-20,32.59,32.720001,31.25,31.360001,100290200,31.360001,"EEM","iShares MSCI Emerging Markets ETF",-14.419998
2020-03-23,31.059999,31.16,30.1,30.610001,97832900,30.610001,"EEM","iShares MSCI Emerging Markets ETF",-15.169998
2020-03-24,32.610001,32.970001,32.349998,32.91,84450500,32.91,"EEM","iShares MSCI Emerging Markets ETF",-12.869999
2020-03-25,33.509998,34.529999,33.189999,34.07,79588900,34.07,"EEM","iShares MSCI Emerging Markets ETF",-11.709999
2020-03-26,34.360001,35.450001,34.279999,35.360001,89991500,35.360001,"EEM","iShares MSCI Emerging Markets ETF",-10.419998
2020-03-27,33.450001,33.959999,33.189999,33.349998,74103800,33.349998,"EEM","iShares MSCI Emerging Markets ETF",-12.430001
2020-03-30,33.470001,33.93,33.220001,33.900002,47544900,33.900002,"EEM","iShares MSCI Emerging Markets ETF",-11.879997
2020-03-31,33.98,34.549999,33.919998,34.130001,64131300,34.130001,"EEM","iShares MSCI Emerging Markets ETF",-11.649998
2020-04-01,33.099998,33.330002,32.619999,32.669998,65580600,32.669998,"EEM","iShares MSCI Emerging Markets ETF",-13.110001
2020-04-02,33.290001,33.939999,33.200001,33.77,55784000,33.77,"EEM","iShares MSCI Emerging Markets ETF",-12.009999
2020-04-03,33.689999,33.860001,32.950001,33.130001,68672500,33.130001,"EEM","iShares MSCI Emerging Markets ETF",-12.649998
2020-04-06,34.439999,34.950001,34.299999,34.939999,82394800,34.939999,"EEM","iShares MSCI Emerging Markets ETF",-10.84
2020-04-07,36.09,36.119999,35.049999,35.119999,74322600,35.119999,"EEM","iShares MSCI Emerging Markets ETF",-10.66
2020-04-08,35.209999,35.57,34.939999,35.48,47112900,35.48,"EEM","iShares MSCI Emerging Markets ETF",-10.299999
2020-04-09,35.860001,36.09,35.259998,35.349998,67239300,35.349998,"EEM","iShares MSCI Emerging Markets ETF",-10.430001
2020-04-13,35.34,35.450001,35,35.400002,38193400,35.400002,"EEM","iShares MSCI Emerging Markets ETF",-10.379997
2020-04-14,36.209999,36.48,36.009998,36.209999,52817400,36.209999,"EEM","iShares MSCI Emerging Markets ETF",-9.56999999999999
2020-04-15,35.349998,35.459999,35.119999,35.279999,60775200,35.279999,"EEM","iShares MSCI Emerging Markets ETF",-10.5
2020-04-16,35.779999,35.82,35.349998,35.470001,37215100,35.470001,"EEM","iShares MSCI Emerging Markets ETF",-10.309998
2020-04-17,36.43,36.48,36,36.259998,40870300,36.259998,"EEM","iShares MSCI Emerging Markets ETF",-9.52000099999999
2020-04-20,35.880001,36.240002,35.73,35.799999,44402700,35.799999,"EEM","iShares MSCI Emerging Markets ETF",-9.98
2020-04-21,34.98,35.18,34.740002,34.810001,46166600,34.810001,"EEM","iShares MSCI Emerging Markets ETF",-10.969998
2020-04-22,35.779999,35.869999,35.689999,35.759998,37455800,35.759998,"EEM","iShares MSCI Emerging Markets ETF",-10.020001
2020-04-23,36.040001,36.290001,35.610001,35.630001,40733100,35.630001,"EEM","iShares MSCI Emerging Markets ETF",-10.149998
2020-04-24,35.689999,35.740002,35.25,35.580002,30553700,35.580002,"EEM","iShares MSCI Emerging Markets ETF",-10.199997
2020-04-27,36.049999,36.369999,35.990002,36.299999,30617400,36.299999,"EEM","iShares MSCI Emerging Markets ETF",-9.48
2020-04-28,36.82,36.849998,36.349998,36.369999,34463600,36.369999,"EEM","iShares MSCI Emerging Markets ETF",-9.41
2020-04-29,36.990002,37.5,36.919998,37.43,45483100,37.43,"EEM","iShares MSCI Emerging Markets ETF",-8.349999
2020-04-30,37.240002,37.360001,36.400002,36.639999,59181700,36.639999,"EEM","iShares MSCI Emerging Markets ETF",-9.13999999999999
2020-05-01,35.75,35.880001,35.200001,35.32,56829000,35.32,"EEM","iShares MSCI Emerging Markets ETF",-10.459999
2020-05-04,35.459999,35.740002,35.32,35.700001,37035600,35.700001,"EEM","iShares MSCI Emerging Markets ETF",-10.079998
2020-01-02,14.28,14.414,14.266,14.266,1272,14.266,"IS0D.DE","iShares Oil & Gas Exploration & Production",0
2020-01-03,14.47,14.65,14.448,14.448,72093,14.448,"IS0D.DE","iShares Oil & Gas Exploration & Production",0.182
2020-01-06,14.668,14.688,14.546,14.65,9366,14.65,"IS0D.DE","iShares Oil & Gas Exploration & Production",0.384
2020-01-07,14.79,14.824,14.73,14.79,13580,14.79,"IS0D.DE","iShares Oil & Gas Exploration & Production",0.523999999999999
2020-01-08,15.056,15.056,14.688,14.688,8200,14.688,"IS0D.DE","iShares Oil & Gas Exploration & Production",0.422000000000001
2020-01-09,14.596,14.626,14.466,14.532,14066,14.532,"IS0D.DE","iShares Oil & Gas Exploration & Production",0.266
2020-01-10,14.738,14.76,14.622,14.622,3827,14.622,"IS0D.DE","iShares Oil & Gas Exploration & Production",0.356
2020-01-13,14.558,14.584,14.436,14.522,1299,14.522,"IS0D.DE","iShares Oil & Gas Exploration & Production",0.256
2020-01-14,14.436,14.51,14.424,14.49,12250,14.49,"IS0D.DE","iShares Oil & Gas Exploration & Production",0.224
2020-01-15,14.472,14.498,14.38,14.446,3630,14.446,"IS0D.DE","iShares Oil & Gas Exploration & Production",0.18
2020-01-16,14.49,14.652,14.414,14.652,4372,14.652,"IS0D.DE","iShares Oil & Gas Exploration & Production",0.385999999999999
2020-01-17,14.526,14.584,14.434,14.434,7401,14.434,"IS0D.DE","iShares Oil & Gas Exploration & Production",0.167999999999999
2020-01-20,14.496,14.496,14.406,14.464,2969,14.464,"IS0D.DE","iShares Oil & Gas Exploration & Production",0.198
2020-01-21,14.332,14.336,14.254,14.312,3905,14.312,"IS0D.DE","iShares Oil & Gas Exploration & Production",0.0459999999999994
2020-01-22,14.206,14.206,13.992,14.044,2221,14.044,"IS0D.DE","iShares Oil & Gas Exploration & Production",-0.222
2020-01-23,13.856,13.87,13.696,13.824,3521,13.824,"IS0D.DE","iShares Oil & Gas Exploration & Production",-0.442
2020-01-24,13.906,13.922,13.666,13.666,13713,13.666,"IS0D.DE","iShares Oil & Gas Exploration & Production",-0.6
2020-01-27,13.374,13.42,13.232,13.25,100454,13.25,"IS0D.DE","iShares Oil & Gas Exploration & Production",-1.016
2020-01-28,13.242,13.35,13.2,13.324,29114,13.324,"IS0D.DE","iShares Oil & Gas Exploration & Production",-0.942
2020-01-29,13.368,13.434,13.26,13.3,7091,13.3,"IS0D.DE","iShares Oil & Gas Exploration & Production",-0.965999999999999
2020-01-30,13.06,13.098,12.9,12.988,26729,12.988,"IS0D.DE","iShares Oil & Gas Exploration & Production",-1.278
2020-01-31,13.066,13.066,12.65,12.758,26520,12.758,"IS0D.DE","iShares Oil & Gas Exploration & Production",-1.508
2020-02-03,12.69,12.698,12.508,12.508,6976,12.508,"IS0D.DE","iShares Oil & Gas Exploration & Production",-1.758
2020-02-04,12.628,12.852,12.628,12.8,12855,12.8,"IS0D.DE","iShares Oil & Gas Exploration & Production",-1.466
2020-02-05,12.712,13.17,12.712,13.158,15596,13.158,"IS0D.DE","iShares Oil & Gas Exploration & Production",-1.108
2020-02-06,13.316,13.332,13.036,13.13,21761,13.13,"IS0D.DE","iShares Oil & Gas Exploration & Production",-1.136
2020-02-07,12.968,13.05,12.794,12.894,5596,12.894,"IS0D.DE","iShares Oil & Gas Exploration & Production",-1.372
2020-02-10,12.868,12.868,12.736,12.736,3258,12.736,"IS0D.DE","iShares Oil & Gas Exploration & Production",-1.53
2020-02-11,12.88,12.976,12.824,12.858,6831,12.858,"IS0D.DE","iShares Oil & Gas Exploration & Production",-1.408
2020-02-12,12.96,13.188,12.95,13.016,5269,13.016,"IS0D.DE","iShares Oil & Gas Exploration & Production",-1.25
2020-02-13,12.94,13.054,12.882,13.034,19064,13.034,"IS0D.DE","iShares Oil & Gas Exploration & Production",-1.232
2020-02-14,13.02,13.15,12.946,12.984,4948,12.984,"IS0D.DE","iShares Oil & Gas Exploration & Production",-1.282
2020-02-17,13,13.028,13,13.018,1073,13.018,"IS0D.DE","iShares Oil & Gas Exploration & Production",-1.248
2020-02-18,12.91,12.954,12.824,12.824,33682,12.824,"IS0D.DE","iShares Oil & Gas Exploration & Production",-1.442
2020-02-19,13.034,13.194,13.004,13.194,7962,13.194,"IS0D.DE","iShares Oil & Gas Exploration & Production",-1.072
2020-02-20,13.318,13.35,13.216,13.216,3543,13.216,"IS0D.DE","iShares Oil & Gas Exploration & Production",-1.05
2020-02-21,13.048,13.106,12.92,12.966,42771,12.966,"IS0D.DE","iShares Oil & Gas Exploration & Production",-1.3
2020-02-24,NA,NA,NA,NA,NA,NA,"IS0D.DE","iShares Oil & Gas Exploration & Production",NA
2020-02-25,12.372,12.372,11.846,11.888,15525,11.888,"IS0D.DE","iShares Oil & Gas Exploration & Production",-2.378
2020-02-26,11.778,11.8,11.57,11.686,20675,11.686,"IS0D.DE","iShares Oil & Gas Exploration & Production",-2.58
2020-02-27,11.18,11.18,10.59,10.894,165763,10.894,"IS0D.DE","iShares Oil & Gas Exploration & Production",-3.372
2020-02-28,10.748,10.748,10.18,10.538,39536,10.538,"IS0D.DE","iShares Oil & Gas Exploration & Production",-3.728
2020-03-02,NA,NA,NA,NA,NA,NA,"IS0D.DE","iShares Oil & Gas Exploration & Production",NA
2020-03-03,10.874,10.964,10.672,10.672,49281,10.672,"IS0D.DE","iShares Oil & Gas Exploration & Production",-3.594
2020-03-04,10.706,10.908,10.632,10.632,17247,10.632,"IS0D.DE","iShares Oil & Gas Exploration & Production",-3.634
2020-03-05,10.69,10.69,10.418,10.444,30091,10.444,"IS0D.DE","iShares Oil & Gas Exploration & Production",-3.822
2020-03-06,10.17,10.17,9.545,9.545,84534,9.545,"IS0D.DE","iShares Oil & Gas Exploration & Production",-4.721
2020-03-09,NA,NA,NA,NA,NA,NA,"IS0D.DE","iShares Oil & Gas Exploration & Production",NA
2020-03-10,7.428,7.822,6.7,6.796,324325,6.796,"IS0D.DE","iShares Oil & Gas Exploration & Production",-7.47
2020-03-11,7.117,7.117,6.7,6.84,174317,6.84,"IS0D.DE","iShares Oil & Gas Exploration & Production",-7.426
2020-03-12,6.315,6.316,5.9,6.17,64088,6.17,"IS0D.DE","iShares Oil & Gas Exploration & Production",-8.096
2020-03-13,6.307,6.582,5.95,6.042,59700,6.042,"IS0D.DE","iShares Oil & Gas Exploration & Production",-8.224
2020-03-16,NA,NA,NA,NA,NA,NA,"IS0D.DE","iShares Oil & Gas Exploration & Production",NA
2020-03-17,6.126,6.164,5.5,5.803,44655,5.803,"IS0D.DE","iShares Oil & Gas Exploration & Production",-8.463
2020-03-18,5.229,5.245,4.98,5.047,71971,5.047,"IS0D.DE","iShares Oil & Gas Exploration & Production",-9.219
2020-03-19,5.068,5.5,5,5.428,68381,5.428,"IS0D.DE","iShares Oil & Gas Exploration & Production",-8.838
2020-03-20,5.897,6.031,5.595,5.743,153966,5.743,"IS0D.DE","iShares Oil & Gas Exploration & Production",-8.523
2020-03-23,NA,NA,NA,NA,NA,NA,"IS0D.DE","iShares Oil & Gas Exploration & Production",NA
2020-03-24,5.725,6.084,5.648,6.084,70073,6.084,"IS0D.DE","iShares Oil & Gas Exploration & Production",-8.182
2020-03-25,6.318,6.474,6,6.339,121179,6.339,"IS0D.DE","iShares Oil & Gas Exploration & Production",-7.927
2020-03-26,6.154,6.5,5.984,6.46,101426,6.46,"IS0D.DE","iShares Oil & Gas Exploration & Production",-7.806
2020-03-27,6.184,6.2,5.84,5.858,123437,5.858,"IS0D.DE","iShares Oil & Gas Exploration & Production",-8.408
2020-03-30,NA,NA,NA,NA,NA,NA,"IS0D.DE","iShares Oil & Gas Exploration & Production",NA
2020-03-31,6.08,6.401,6.08,6.401,390400,6.401,"IS0D.DE","iShares Oil & Gas Exploration & Production",-7.865
2020-04-01,6.215,6.283,6.119,6.119,97709,6.119,"IS0D.DE","iShares Oil & Gas Exploration & Production",-8.147
2020-04-02,6.473,7.2,6.435,6.852,317460,6.852,"IS0D.DE","iShares Oil & Gas Exploration & Production",-7.414
2020-04-03,6.843,7.19,6.8,6.883,149861,6.883,"IS0D.DE","iShares Oil & Gas Exploration & Production",-7.383
2020-04-06,NA,NA,NA,NA,NA,NA,"IS0D.DE","iShares Oil & Gas Exploration & Production",NA
2020-04-07,NA,NA,NA,NA,NA,NA,"IS0D.DE","iShares Oil & Gas Exploration & Production",NA
2020-04-08,NA,NA,NA,NA,NA,NA,"IS0D.DE","iShares Oil & Gas Exploration & Production",NA
2020-04-09,NA,NA,NA,NA,NA,NA,"IS0D.DE","iShares Oil & Gas Exploration & Production",NA
2020-04-14,NA,NA,NA,NA,NA,NA,"IS0D.DE","iShares Oil & Gas Exploration & Production",NA
2020-04-15,NA,NA,NA,NA,NA,NA,"IS0D.DE","iShares Oil & Gas Exploration & Production",NA
2020-04-16,NA,NA,NA,NA,NA,NA,"IS0D.DE","iShares Oil & Gas Exploration & Production",NA
2020-04-17,NA,NA,NA,NA,NA,NA,"IS0D.DE","iShares Oil & Gas Exploration & Production",NA
2020-04-20,NA,NA,NA,NA,NA,NA,"IS0D.DE","iShares Oil & Gas Exploration & Production",NA
2020-04-21,NA,NA,NA,NA,NA,NA,"IS0D.DE","iShares Oil & Gas Exploration & Production",NA
2020-04-22,NA,NA,NA,NA,NA,NA,"IS0D.DE","iShares Oil & Gas Exploration & Production",NA
2020-04-23,NA,NA,NA,NA,NA,NA,"IS0D.DE","iShares Oil & Gas Exploration & Production",NA
2020-04-24,NA,NA,NA,NA,NA,NA,"IS0D.DE","iShares Oil & Gas Exploration & Production",NA
2020-04-27,NA,NA,NA,NA,NA,NA,"IS0D.DE","iShares Oil & Gas Exploration & Production",NA
2020-04-28,NA,NA,NA,NA,NA,NA,"IS0D.DE","iShares Oil & Gas Exploration & Production",NA
2020-04-29,NA,NA,NA,NA,NA,NA,"IS0D.DE","iShares Oil & Gas Exploration & Production",NA
2020-04-30,NA,NA,NA,NA,NA,NA,"IS0D.DE","iShares Oil & Gas Exploration & Production",NA
2020-05-04,NA,NA,NA,NA,NA,NA,"IS0D.DE","iShares Oil & Gas Exploration & Production",NA
2020-01-02,63.439999,63.66,63.380001,63.380001,363994,63.380001,"IWDA.L","iShares Core MSCI World UCITS ETF",0
2020-01-03,63.110001,63.369999,62.75,63.369999,142740,63.369999,"IWDA.L","iShares Core MSCI World UCITS ETF",-0.0100020000000001
2020-01-06,63.049999,63.25,62.73,63.25,183302,63.25,"IWDA.L","iShares Core MSCI World UCITS ETF",-0.130001
2020-01-07,63.52,63.634998,63.200001,63.380001,168379,63.380001,"IWDA.L","iShares Core MSCI World UCITS ETF",0
2020-01-08,63.169998,63.459999,63.080002,63.360001,524282,63.360001,"IWDA.L","iShares Core MSCI World UCITS ETF",-0.0200000000000031
2020-01-09,63.84,63.900002,63.740002,63.790001,263575,63.790001,"IWDA.L","iShares Core MSCI World UCITS ETF",0.409999999999997
2020-01-10,64.010002,64.050003,63.84,63.869999,221626,63.869999,"IWDA.L","iShares Core MSCI World UCITS ETF",0.489998
2020-01-13,63.860001,64.004997,63.700001,63.900002,964224,63.900002,"IWDA.L","iShares Core MSCI World UCITS ETF",0.520001000000001
2020-01-14,64.199997,64.352997,63.799999,64.099998,244927,64.099998,"IWDA.L","iShares Core MSCI World UCITS ETF",0.719996999999999
2020-01-15,64.080002,64.279999,63.959999,64.279999,551313,64.279999,"IWDA.L","iShares Core MSCI World UCITS ETF",0.899998000000004
2020-01-16,64.400002,64.43,64.199997,64.379997,111006,64.379997,"IWDA.L","iShares Core MSCI World UCITS ETF",0.999996000000003
2020-01-17,64.68,64.779999,64.650002,64.709999,119940,64.709999,"IWDA.L","iShares Core MSCI World UCITS ETF",1.329998
2020-01-20,64.709999,64.75,64.580002,64.709999,74180,64.709999,"IWDA.L","iShares Core MSCI World UCITS ETF",1.329998
2020-01-21,64.489998,64.690002,64.300003,64.690002,304287,64.690002,"IWDA.L","iShares Core MSCI World UCITS ETF",1.31000100000001
2020-01-22,64.839996,64.900002,64.68,64.809998,148992,64.809998,"IWDA.L","iShares Core MSCI World UCITS ETF",1.42999699999999
2020-01-23,64.589996,64.610001,64.199997,64.260002,839388,64.260002,"IWDA.L","iShares Core MSCI World UCITS ETF",0.880001
2020-01-24,64.699997,64.860001,64.410004,64.410004,202114,64.410004,"IWDA.L","iShares Core MSCI World UCITS ETF",1.030003
2020-01-27,63.509998,63.669998,62.950001,63.07,543593,63.07,"IWDA.L","iShares Core MSCI World UCITS ETF",-0.310001
2020-01-28,63.380001,63.68,63.029999,63.68,142778,63.68,"IWDA.L","iShares Core MSCI World UCITS ETF",0.299999
2020-01-29,63.75,63.93,63.560001,63.779999,414422,63.779999,"IWDA.L","iShares Core MSCI World UCITS ETF",0.399997999999997
2020-01-30,63.139999,63.421902,63.009998,63.27,166936,63.27,"IWDA.L","iShares Core MSCI World UCITS ETF",-0.110000999999997
2020-01-31,63.68,63.700001,62.799999,62.91,335677,62.91,"IWDA.L","iShares Core MSCI World UCITS ETF",-0.470001000000003
2020-02-03,62.91,63.34,62.799999,63.09,461118,63.09,"IWDA.L","iShares Core MSCI World UCITS ETF",-0.290000999999997
2020-02-04,63.41,64.059998,63.41,64.059998,212947,64.059998,"IWDA.L","iShares Core MSCI World UCITS ETF",0.679996999999993
2020-02-05,63.91,64.660004,63.91,64.440002,366534,64.440002,"IWDA.L","iShares Core MSCI World UCITS ETF",1.06000100000001
2020-02-06,65.010002,65.040001,64.629997,64.82,103483,64.82,"IWDA.L","iShares Core MSCI World UCITS ETF",1.43999899999999
2020-02-07,64.709999,64.75,64.459999,64.580002,253576,64.580002,"IWDA.L","iShares Core MSCI World UCITS ETF",1.20000099999999
2020-02-10,64.559998,64.580002,64.25,64.559998,249494,64.559998,"IWDA.L","iShares Core MSCI World UCITS ETF",1.17999699999999
2020-02-11,64.989998,65.230003,64.889999,65.080002,136877,65.080002,"IWDA.L","iShares Core MSCI World UCITS ETF",1.70000099999999
2020-02-12,65.139999,65.349998,65.080002,65.32,238088,65.32,"IWDA.L","iShares Core MSCI World UCITS ETF",1.93999899999999
2020-02-13,65.080002,65.290001,64.730003,65.290001,93597,65.290001,"IWDA.L","iShares Core MSCI World UCITS ETF",1.91
2020-02-14,65.339996,65.349998,65.110001,65.220001,111496,65.220001,"IWDA.L","iShares Core MSCI World UCITS ETF",1.84
2020-02-17,65.410004,65.410004,65.300003,65.370003,73313,65.370003,"IWDA.L","iShares Core MSCI World UCITS ETF",1.990002
2020-02-18,64.879997,65.120003,64.800003,64.830002,217793,64.830002,"IWDA.L","iShares Core MSCI World UCITS ETF",1.45000099999999
2020-02-19,65.169998,65.379997,65.072502,65.330002,178019,65.330002,"IWDA.L","iShares Core MSCI World UCITS ETF",1.95000099999999
2020-02-20,65.25,65.292801,64.610001,64.610001,128754,64.610001,"IWDA.L","iShares Core MSCI World UCITS ETF",1.23
2020-02-21,64.900002,64.900002,64.330002,64.620003,83867,64.620003,"IWDA.L","iShares Core MSCI World UCITS ETF",1.240002
2020-02-24,63.669998,63.669998,62.18,62.57,1233411,62.57,"IWDA.L","iShares Core MSCI World UCITS ETF",-0.810001
2020-02-25,62.779999,62.849998,61.360001,61.560001,467743,61.560001,"IWDA.L","iShares Core MSCI World UCITS ETF",-1.82
2020-02-26,61.02,61.540001,59.900002,61.400002,624559,61.400002,"IWDA.L","iShares Core MSCI World UCITS ETF",-1.979999
2020-02-27,60.060001,60.34,58.5,59.48,522160,59.48,"IWDA.L","iShares Core MSCI World UCITS ETF",-3.900001
2020-02-28,57.48,57.540001,55.849998,56.91,1797891,56.91,"IWDA.L","iShares Core MSCI World UCITS ETF",-6.470001
2020-03-02,58.400002,58.810001,56.700001,58.360001,559487,58.360001,"IWDA.L","iShares Core MSCI World UCITS ETF",-5.02
2020-03-03,59.41,60.450001,58.869999,59.119999,546410,59.119999,"IWDA.L","iShares Core MSCI World UCITS ETF",-4.260002
2020-03-04,59.119999,59.73,58.91,59.369999,1153753,59.369999,"IWDA.L","iShares Core MSCI World UCITS ETF",-4.010002
2020-03-05,59.900002,59.91,58.869999,59.419998,492535,59.419998,"IWDA.L","iShares Core MSCI World UCITS ETF",-3.960003
2020-03-06,58.009998,58.310001,56.849998,57.549999,354278,57.549999,"IWDA.L","iShares Core MSCI World UCITS ETF",-5.830002
2020-03-09,57.549999,57.549999,57.549999,57.549999,0,57.549999,"IWDA.L","iShares Core MSCI World UCITS ETF",-5.830002
2020-03-10,54.720001,55.880001,53.02,53.580002,1022881,53.580002,"IWDA.L","iShares Core MSCI World UCITS ETF",-9.799999
2020-03-11,54.310001,54.610001,53.16,53.32,447394,53.32,"IWDA.L","iShares Core MSCI World UCITS ETF",-10.060001
2020-03-12,50.779999,51.049999,47.41,47.669998,1392161,47.669998,"IWDA.L","iShares Core MSCI World UCITS ETF",-15.710003
2020-03-13,49.75,50.720001,47.509998,48.470001,1938554,48.470001,"IWDA.L","iShares Core MSCI World UCITS ETF",-14.91
2020-03-16,48.470001,48.470001,44.5,47.279999,896825,47.279999,"IWDA.L","iShares Core MSCI World UCITS ETF",-16.100002
2020-03-17,47.880001,48.502602,45.099998,47.369999,384688,47.369999,"IWDA.L","iShares Core MSCI World UCITS ETF",-16.010002
2020-03-18,45.900002,46.200001,44.68,44.970001,525120,44.970001,"IWDA.L","iShares Core MSCI World UCITS ETF",-18.41
2020-03-19,44.709999,46.279999,44.09,45.41,2565056,45.41,"IWDA.L","iShares Core MSCI World UCITS ETF",-17.970001
2020-03-20,47.549999,47.790001,45.209999,45.57,973813,45.57,"IWDA.L","iShares Core MSCI World UCITS ETF",-17.810001
2020-03-23,42.880001,46,42.470001,43.07,2218043,43.07,"IWDA.L","iShares Core MSCI World UCITS ETF",-20.310001
2020-03-24,45.130001,46.84,44.900002,46.73,697844,46.73,"IWDA.L","iShares Core MSCI World UCITS ETF",-16.650001
2020-03-25,48.009998,48.689999,46.560001,48.5,1225044,48.5,"IWDA.L","iShares Core MSCI World UCITS ETF",-14.880001
2020-03-26,47.700001,50.18,47.240002,50.18,663365,50.18,"IWDA.L","iShares Core MSCI World UCITS ETF",-13.200001
2020-03-27,49.740002,50,48.610001,49.200001,1191334,49.200001,"IWDA.L","iShares Core MSCI World UCITS ETF",-14.18
2020-03-30,49.25,50.119999,48.459999,50.119999,261980,50.119999,"IWDA.L","iShares Core MSCI World UCITS ETF",-13.260002
2020-03-31,50.580002,50.77,49.610001,50.630001,782870,50.630001,"IWDA.L","iShares Core MSCI World UCITS ETF",-12.75
2020-04-01,48.509998,48.669998,47.93,48.34,1393384,48.34,"IWDA.L","iShares Core MSCI World UCITS ETF",-15.040001
2020-04-02,48.790001,48.790001,47.27,48.360001,663672,48.360001,"IWDA.L","iShares Core MSCI World UCITS ETF",-15.02
2020-04-03,48.290001,48.59,47.779999,47.869999,291292,47.869999,"IWDA.L","iShares Core MSCI World UCITS ETF",-15.510002
2020-04-06,49.509998,50.130001,49.299999,50.029999,232597,50.029999,"IWDA.L","iShares Core MSCI World UCITS ETF",-13.350002
2020-04-07,NA,NA,NA,NA,NA,NA,"IWDA.L","iShares Core MSCI World UCITS ETF",NA
2020-04-08,NA,NA,NA,NA,NA,NA,"IWDA.L","iShares Core MSCI World UCITS ETF",NA
2020-04-09,NA,NA,NA,NA,NA,NA,"IWDA.L","iShares Core MSCI World UCITS ETF",NA
2020-04-14,NA,NA,NA,NA,NA,NA,"IWDA.L","iShares Core MSCI World UCITS ETF",NA
2020-04-15,NA,NA,NA,NA,NA,NA,"IWDA.L","iShares Core MSCI World UCITS ETF",NA
2020-04-16,NA,NA,NA,NA,NA,NA,"IWDA.L","iShares Core MSCI World UCITS ETF",NA
2020-04-17,NA,NA,NA,NA,NA,NA,"IWDA.L","iShares Core MSCI World UCITS ETF",NA
2020-04-20,NA,NA,NA,NA,NA,NA,"IWDA.L","iShares Core MSCI World UCITS ETF",NA
2020-04-21,NA,NA,NA,NA,NA,NA,"IWDA.L","iShares Core MSCI World UCITS ETF",NA
2020-04-22,NA,NA,NA,NA,NA,NA,"IWDA.L","iShares Core MSCI World UCITS ETF",NA
2020-04-23,NA,NA,NA,NA,NA,NA,"IWDA.L","iShares Core MSCI World UCITS ETF",NA
2020-04-24,NA,NA,NA,NA,NA,NA,"IWDA.L","iShares Core MSCI World UCITS ETF",NA
2020-04-27,NA,NA,NA,NA,NA,NA,"IWDA.L","iShares Core MSCI World UCITS ETF",NA
2020-04-28,NA,NA,NA,NA,NA,NA,"IWDA.L","iShares Core MSCI World UCITS ETF",NA
2020-04-29,NA,NA,NA,NA,NA,NA,"IWDA.L","iShares Core MSCI World UCITS ETF",NA
2020-04-30,NA,NA,NA,NA,NA,NA,"IWDA.L","iShares Core MSCI World UCITS ETF",NA
2020-05-01,NA,NA,NA,NA,NA,NA,"IWDA.L","iShares Core MSCI World UCITS ETF",NA
2020-05-04,NA,NA,NA,NA,NA,NA,"IWDA.L","iShares Core MSCI World UCITS ETF",NA
